<?xml version="1.0" standalone="no"?>
<!DOCTYPE svg PUBLIC "-//W3C//DTD SVG 20010904//EN"
 "http://www.w3.org/TR/2001/REC-SVG-20010904/DTD/svg10.dtd">
<svg version="1.0" xmlns="http://www.w3.org/2000/svg"
 width="320.000000pt" height="320.000000pt" viewBox="0 0 320.000000 320.000000"
 preserveAspectRatio="xMidYMid meet">
<metadata>
Created by potrace 1.11, written by Peter Selinger 2001-2013
</metadata>
<g transform="translate(0.000000,320.000000) scale(0.100000,-0.100000)"
fill="#000000" stroke="none">
<path d="M686 3121 c-3 -5 17 -44 45 -86 27 -42 49 -78 47 -80 -2 -1 -21 -12
-43 -23 -92 -47 -168 -135 -211 -244 -26 -66 -42 -158 -28 -159 44 -4 1158 -3
1165 1 14 9 -19 141 -51 205 -43 85 -128 170 -207 206 l-33 15 50 78 c48 73
54 96 27 96 -7 0 -36 -37 -65 -81 -29 -44 -57 -77 -61 -74 -5 3 -47 12 -93 21
-96 19 -269 14 -355 -9 l-52 -14 -52 79 c-48 73 -70 91 -83 69z m194 -335 c13
-23 13 -29 0 -53 -31 -55 -124 -34 -118 26 7 71 83 88 118 27z m502 10 c26
-39 -9 -98 -57 -98 -50 0 -79 55 -51 97 24 36 85 37 108 1z"/>
<path d="M490 1976 c0 -440 1 -474 19 -506 26 -50 83 -80 152 -80 l56 0 0
-173 c-1 -189 6 -214 61 -236 62 -24 104 -17 147 23 l36 35 -1 83 c-1 46 -1
125 -1 176 l1 92 118 0 117 0 -1 -167 c-1 -193 5 -215 67 -243 50 -22 111 -11
149 26 25 24 25 26 25 202 l1 177 39 3 c115 7 166 40 184 120 6 29 10 216 9
493 l-1 447 -589 0 -588 0 0 -472z"/>
<path d="M212 2419 c-56 -34 -55 -25 -55 -365 0 -298 2 -317 20 -342 24 -33
87 -55 131 -47 18 3 46 19 62 35 l30 29 0 319 c0 307 -1 320 -21 345 -34 45
-117 57 -167 26z"/>
<path d="M1795 2406 l-35 -33 0 -320 c0 -306 1 -321 20 -346 51 -64 183 -54
210 17 11 30 11 623 -1 652 -12 34 -56 58 -110 60 -43 2 -53 -1 -84 -30z"/>
<path d="M2700 1288 c-195 -320 -245 -392 -315 -455 -64 -58 -89 -73 -175
-109 -82 -34 -358 -16 -538 35 -27 8 -36 7 -52 -9 -23 -23 -43 -111 -38 -170
l3 -45 55 -16 c30 -8 63 -18 73 -22 33 -13 47 -16 119 -24 94 -10 334 -10 418
0 36 4 78 16 94 25 21 12 102 140 303 477 150 253 280 472 289 488 l15 27 -64
0 -63 0 -124 -202z"/>
<path d="M2500 466 c-70 -15 -132 -46 -146 -74 -15 -31 -11 -177 6 -197 83
-100 496 -101 579 -2 8 10 11 47 9 113 l-3 99 -50 27 c-27 15 -77 32 -111 37
-78 14 -214 13 -284 -3z"/>
</g>
</svg>
